{
  "name": "P004A_OrderProcessingForCustomercare",
  "description": "Blank Process",
  "main": "Main.xaml",
  "dependencies": {
    "MavenickConsulting.AutocloseMsgBox.Activities": "[1.1.2]",
    "UiPath": "[19.7.7128.27029]",
    "UiPath.Credentials.Activities": "[1.1.6479.13204]",
    "UiPath.Database.Activities": "[1.2.6863.32528]",
    "UiPath.Excel.Activities": "[2.11.4]",
    "UiPath.IntelligentOCR.Activities": "[3.0.0]",
    "UiPath.Mail.Activities": "[1.5.1]",
    "UiPath.System.Activities": "[19.7.0]",
    "UiPath.UIAutomation.Activities": "[19.7.0]",
    "UiPath.WebAPI.Activities": "[1.4.4]"
  },
  "webServices": [],
  "entitiesStores": [],
  "schemaVersion": "4.0",
  "studioVersion": "20.10.4.0",
  "projectVersion": "2.2.49",
  "runtimeOptions": {
    "autoDispose": false,
    "isPausable": true,
    "requiresUserInteraction": true,
    "supportsPersistence": false,
    "excludedLoggedData": [
      "Private:*",
      "*password*"
    ],
    "executionType": "Workflow",
    "readyForPiP": false,
    "startsInPiP": false
  },
  "designOptions": {
    "projectProfile": "Developement",
    "outputType": "Process",
    "libraryOptions": {
      "includeOriginalXaml": false,
      "privateWorkflows": []
    },
    "processOptions": {
      "ignoredFiles": []
    },
    "fileInfoCollection": [],
    "modernBehavior": false
  },
  "expressionLanguage": "VisualBasic",
  "entryPoints": [
    {
      "filePath": "Main.xaml",
      "uniqueId": "13bf4ecb-f792-40a0-873e-8306bf944462",
      "input": [],
      "output": []
    }
  ],
  "isTemplate": false,
  "templateProjectData": {},
  "publishData": {}
}